! UIMX ascii 2.0 key: 3399                                                      

*fileSelectionBox1.class: fileSelectionBox
*fileSelectionBox1.parent: NO_PARENT
*fileSelectionBox1.defaultShell: topLevelShell
*fileSelectionBox1.static: true
*fileSelectionBox1.gbldecl: #include <stdio.h>\

*fileSelectionBox1.funcdecl: swidget create_fileSelectionBox1()\

*fileSelectionBox1.funcname: create_fileSelectionBox1
*fileSelectionBox1.funcdef: "swidget", "<create_fileSelectionBox1>(%)"
*fileSelectionBox1.fcode: return(rtrn);\

*fileSelectionBox1.name: fileSelectionBox1
*fileSelectionBox1.resizePolicy: "resize_none"
*fileSelectionBox1.unitType: "pixels"
*fileSelectionBox1.x: 320
*fileSelectionBox1.y: 180
*fileSelectionBox1.width: 300
*fileSelectionBox1.height: 420
*fileSelectionBox1.background: WindowBackground

