! UIMX ascii 2.0 key: 3145                                                      

*transientShell2.class: transientShell
*transientShell2.parent: NO_PARENT
*transientShell2.static: true
*transientShell2.gbldecl: #include <stdio.h>\

*transientShell2.funcdecl: swidget create_transientShell2()\

*transientShell2.funcname: create_transientShell2
*transientShell2.funcdef: "swidget", "<create_transientShell2>(%)"
*transientShell2.fcode: return(rtrn);\

*transientShell2.name: transientShell2
*transientShell2.x: 230
*transientShell2.y: 210
*transientShell2.width: 160
*transientShell2.height: 200

