! UIMX ascii 2.0 key: 1825                                                      

*Warning.class: messageBoxDialog
*Warning.parent: NO_PARENT
*Warning.defaultShell: topLevelShell
*Warning.static: true
*Warning.gbldecl: #include <stdio.h>\
#include <ExternResources.h>
*Warning.ispecdecl:
*Warning.funcdecl: swidget create_Warning()\

*Warning.funcname: create_Warning
*Warning.funcdef: "swidget", "<create_Warning>(%)"
*Warning.icode:
*Warning.fcode: return(rtrn);\

*Warning.auxdecl:
*Warning.name: Warning
*Warning.unitType: "pixels"
*Warning.x: 600
*Warning.y: 600
*Warning.width: 290
*Warning.height: 150
*Warning.dialogType: "dialog_file_selection"
*Warning.cancelCallback: {\
\
}
*Warning.okCallback: {\
        extern char commerr[180];\
 \
        AppendDialogText(commerr);\
\
}
*Warning.dialogStyle: "dialog_modeless"
*Warning.buttonFontList: BoldTextFont
*Warning.labelFontList: TextFont
*Warning.textFontList: BoldTextFont
*Warning.background: WindowBackground
*Warning.allowShellResize: "true"
*Warning.resizePolicy: "resize_any"
*Warning.createCallback: {\
/*XtVaSetValues(UxWidget,XmNallowShellResize,True,NULL); \
XtVaSetValues(UxWidget,XmNresizePolicy,XmRESIZE_ANY,NULL);*/\
XtVaSetValues(UxWidget,XmNdialogType,XmDIALOG_QUESTION,NULL);\
}

