! UIMX ascii 2.0 key: 4933                                                      

*alice.class: Project
*alice.PjName: alice
*alice.PjDoMain: 1
*alice.PjDoMake: 1
*alice.PjWriteAll: 0
*alice.PjRunMake: 0
*alice.PjStartupIface: AliceShell
*alice.PjWriteCDir: /midas/93N04/gui/XAlice/src
*alice.PjMode: 0

*sh_list1_PJinterface.class: PJinterface
*sh_list1_PJinterface.PjName: sh_list1_PJinterface
*sh_list1_PJinterface.PjSwName: sh_list1
*sh_list1_PJinterface.PjParent: alice
*sh_list1_PJinterface.PjFileName: sh_list1.i
*sh_list1_PJinterface.PjShowFlag: 0
*sh_list1_PJinterface.PjDate: 746892841
*sh_list1_PJinterface.PjMode: 0
*sh_list1_PJinterface.PjCFileName: /astro/midas/93N04/gui/XAlice/src/sh_list1.c

*StatShell_PJinterface.class: PJinterface
*StatShell_PJinterface.PjName: StatShell_PJinterface
*StatShell_PJinterface.PjSwName: StatShell
*StatShell_PJinterface.PjParent: alice
*StatShell_PJinterface.PjFileName: StatShell.i
*StatShell_PJinterface.PjShowFlag: 0
*StatShell_PJinterface.PjDate: 746892893
*StatShell_PJinterface.PjMode: 0
*StatShell_PJinterface.PjCFileName: /astro/midas/93N04/gui/XAlice/src/StatShell.c

*MessageShell_PJinterface.class: PJinterface
*MessageShell_PJinterface.PjName: MessageShell_PJinterface
*MessageShell_PJinterface.PjSwName: MessageShell
*MessageShell_PJinterface.PjParent: alice
*MessageShell_PJinterface.PjFileName: MessageShell.i
*MessageShell_PJinterface.PjShowFlag: 0
*MessageShell_PJinterface.PjDate: 746892913
*MessageShell_PJinterface.PjMode: 0
*MessageShell_PJinterface.PjCFileName: /astro/midas/93N04/gui/XAlice/src/MessageShell.c

*LabelOptions_PJinterface.class: PJinterface
*LabelOptions_PJinterface.PjName: LabelOptions_PJinterface
*LabelOptions_PJinterface.PjSwName: LabelOptions
*LabelOptions_PJinterface.PjParent: alice
*LabelOptions_PJinterface.PjFileName: LabelOptions.i
*LabelOptions_PJinterface.PjShowFlag: 0
*LabelOptions_PJinterface.PjDate: 746892933
*LabelOptions_PJinterface.PjMode: 0
*LabelOptions_PJinterface.PjCFileName: /astro/midas/93N04/gui/XAlice/src/LabelOptions.c

*LabelCursor_PJinterface.class: PJinterface
*LabelCursor_PJinterface.PjName: LabelCursor_PJinterface
*LabelCursor_PJinterface.PjSwName: LabelCursor
*LabelCursor_PJinterface.PjParent: alice
*LabelCursor_PJinterface.PjFileName: LabelCursor.i
*LabelCursor_PJinterface.PjShowFlag: 0
*LabelCursor_PJinterface.PjDate: 746892949
*LabelCursor_PJinterface.PjMode: 0
*LabelCursor_PJinterface.PjCFileName: /astro/midas/93N04/gui/XAlice/src/LabelCursor.c

*Savefiles_PJinterface.class: PJinterface
*Savefiles_PJinterface.PjName: Savefiles_PJinterface
*Savefiles_PJinterface.PjSwName: Savefiles
*Savefiles_PJinterface.PjParent: alice
*Savefiles_PJinterface.PjFileName: Savefiles.i
*Savefiles_PJinterface.PjShowFlag: 0
*Savefiles_PJinterface.PjDate: 746892965
*Savefiles_PJinterface.PjMode: 0
*Savefiles_PJinterface.PjCFileName: /astro/midas/93N04/gui/XAlice/src/Savefiles.c

*AliceShell_PJinterface.class: PJinterface
*AliceShell_PJinterface.PjName: AliceShell_PJinterface
*AliceShell_PJinterface.PjSwName: AliceShell
*AliceShell_PJinterface.PjParent: alice
*AliceShell_PJinterface.PjFileName: AliceShell.i
*AliceShell_PJinterface.PjShowFlag: 2
*AliceShell_PJinterface.PjDate: 746896624
*AliceShell_PJinterface.PjMode: 0
*AliceShell_PJinterface.PjCFileName: /astro/midas/93N04/gui/XAlice/src/AliceShell.c

*RebinShell_PJinterface.class: PJinterface
*RebinShell_PJinterface.PjName: RebinShell_PJinterface
*RebinShell_PJinterface.PjSwName: RebinShell
*RebinShell_PJinterface.PjParent: alice
*RebinShell_PJinterface.PjFileName: RebinShell.i
*RebinShell_PJinterface.PjShowFlag: 0
*RebinShell_PJinterface.PjDate: 746892988
*RebinShell_PJinterface.PjMode: 0
*RebinShell_PJinterface.PjCFileName: /astro/midas/93N04/gui/XAlice/src/RebinShell.c

*SaveAsShell_PJinterface.class: PJinterface
*SaveAsShell_PJinterface.PjName: SaveAsShell_PJinterface
*SaveAsShell_PJinterface.PjSwName: SaveAsShell
*SaveAsShell_PJinterface.PjParent: alice
*SaveAsShell_PJinterface.PjFileName: SaveAsShell.i
*SaveAsShell_PJinterface.PjShowFlag: 0
*SaveAsShell_PJinterface.PjDate: 746893003
*SaveAsShell_PJinterface.PjMode: 0
*SaveAsShell_PJinterface.PjCFileName: /astro/midas/93N04/gui/XAlice/src/SaveAsShell.c

*PlotModeShell_PJinterface.class: PJinterface
*PlotModeShell_PJinterface.PjName: PlotModeShell_PJinterface
*PlotModeShell_PJinterface.PjSwName: PlotModeShell
*PlotModeShell_PJinterface.PjParent: alice
*PlotModeShell_PJinterface.PjFileName: PlotModeShell.i
*PlotModeShell_PJinterface.PjShowFlag: 0
*PlotModeShell_PJinterface.PjDate: 746893018
*PlotModeShell_PJinterface.PjMode: 0
*PlotModeShell_PJinterface.PjCFileName: /astro/midas/93N04/gui/XAlice/src/PlotModeShell.c

*HelpTopLevel_PJinterface.class: PJinterface
*HelpTopLevel_PJinterface.PjName: HelpTopLevel_PJinterface
*HelpTopLevel_PJinterface.PjSwName: HelpTopLevel
*HelpTopLevel_PJinterface.PjParent: alice
*HelpTopLevel_PJinterface.PjFileName: HelpTopLevel.i
*HelpTopLevel_PJinterface.PjShowFlag: 0
*HelpTopLevel_PJinterface.PjDate: 746893033
*HelpTopLevel_PJinterface.PjMode: 0
*HelpTopLevel_PJinterface.PjCFileName: /astro/midas/93N04/gui/XAlice/src/HelpTopLevel.c

*GaussShell_PJinterface.class: PJinterface
*GaussShell_PJinterface.PjName: GaussShell_PJinterface
*GaussShell_PJinterface.PjSwName: GaussShell
*GaussShell_PJinterface.PjParent: alice
*GaussShell_PJinterface.PjFileName: GaussShell.i
*GaussShell_PJinterface.PjShowFlag: 0
*GaussShell_PJinterface.PjDate: 746891921
*GaussShell_PJinterface.PjMode: 0
*GaussShell_PJinterface.PjCFileName: /astro/midas/93N04/gui/XAlice/src/GaussShell.c

*uxmain.class: PJuxmain
*uxmain.PjName: uxmain
*uxmain.PjParent: alice
*uxmain.PjFileName: alice.c
*uxmain.PjDate: 746896627
*uxmain.PjMode: 0
*uxmain.PjBody: /*------------------------------------------------------------\
 * This is the project main program file for Ux generated  \
 * code. You may add application dependent source code\
 * at the appropriate places. \
 * 			     \
 * Do not modify the statements preceded by the dollar\
 * sign ($), these statements will be replaced with\
 * the appropriate source code when the main program is\
 * automatically generated. \
 *			\
 * $Date: 2003-06-04 14:49:19 $  		$Revision: 1.1.1.1 $ \
 *-----------------------------------------------------------*/\
#ifdef XOPEN_CATALOG\
#include <locale.h>\
#endif\
\
#include <UxLib.h>\
\
\
/*----------------------------------------------\
 * Insert application global declarations here\
 *---------------------------------------------*/\
swidget GaussShell;\
swidget ListPopup;\
#include <signal.h>\
#include <StdResources.h>\
#include "procedures.c"\
main(argc,argv)\
	int 	argc;\
	char 	*argv[];\
{\
	/*-----------------------------------------------------------\
	 * Declarations.\
	 * The default identifier - mainIface will only be declared  \
	 * if the interface function is global and of type swidget. \
	 * To change the identifier to a different name, modify the\
	 * string mainIface in the file "main.dat".  If "mainIface"\
	 * is declared, it will be used below where the return value \
	 * of  PJ_INTERFACE_FUNCTION_CALL will be assigned to it.\
         *-----------------------------------------------------------*/ \
\
  	$PJ_INTERFACE_RETVAL_TYPE\
\
	/*--------------------------------\
	 * Interface function declaration\
	 *-------------------------------*/	\
         extern swidget create_GaussShell();\
         extern swidget create_topLevelShell2();\
         extern swidget create_sh_list1();\
 	$PJ_INTERFACE_FUNCTION_DECL\
	$PJ_INTERFACE_FUNCTION_ARG_DECL\
\
	/*---------------------\
	 * Initialize Program\
	 *--------------------*/\
\
#ifdef XOPEN_CATALOG\
	setlocale(LC_ALL, "");\
#endif\
        \
       \
  	UxTopLevel = UxInitialize("$PJ_APP_CLASS_NAME", &argc, argv);\
\
	/*------------------------------------------------------\
	 * Insert initialization code for your application here\
	 *-------------------------------------------------------*/\
\
          init_alice(); \
          MonitorPid = atoi(argv[1]); \
        \
	/*----------------------------------------------------------------\
	 * Create and popup the first window of the interface.  The 	 \
	 * return value can be used in the popdown or destroy functions.\
	 * The swidget return value of  PJ_INTERFACE_FUNCTION_CALL will\
	 * be assigned to "mainIface" from  PJ_INTERFACE_RETVAL_TYPE. \
	 *---------------------------------------------------------------*/\
\
	$PJ_INTERFACE_FUNCTION_CALL\
	$PJ_POPUP_CALL\
\
	/*-------------------------\
	 * Enter the event loop \
	 *------------------------*/\
        signal(SIGINT,SIG_IGN);\
        signal(SIGQUIT,SIG_IGN); \
  	$PJ_EVENT_LOOP\
\
}\

*uxmain.PjExplicitEventLoop: {\
\
	XEvent event;\
\
	for (;;)\
	{\
	    UxNextEvent(&event);\
\
	    switch (event.type)\
	    {\
\
	       /*----------------------------------------------------\
	  	* Insert code here to handle any events that you do\
	 	* not wish to be handled by the interface.\
	 	*----------------------------------------------------*/\
\
		default:\
	    	    UxDispatchEvent(&event);\
	    	    break;\
	    }\
	}\
}
*uxmain.PjEdited: 1
*uxmain.PjHasImplicitLoop: 1
*uxmain.PjHasExplicitLoop: 0

*xtmain.class: PJxtmain
*xtmain.PjName: xtmain
*xtmain.PjParent: alice
*xtmain.PjFileName: alice.c
*xtmain.PjDate: 716824487
*xtmain.PjMode: 1
*xtmain.PjBody: /*-----------------------------------------------------------\
 * This is the project main program file for Xt generated \
 * code. You may add application dependent source code \
 * at the appropriate places. \
 * 			     \
 * Do not modify the statements preceded by the dollar\
 * sign ($), these statements will be replaced with\
 * the appropriate source code when the main program is  \
 * generated.  \
 *\
 * $Date: 2003-06-04 14:49:19 $  		$Revision: 1.1.1.1 $ \
 *-----------------------------------------------------------*/ \
\
#ifdef XOPEN_CATALOG\
#include <locale.h>\
#endif\
\
#include <X11/Intrinsic.h>\
#include <X11/StringDefs.h>\
\
/*---------------------------------------------------- \
 * UxXt.h needs to be included only when compiling a \
 * stand-alone application. \
 *---------------------------------------------------*/\
#ifndef DESIGN_TIME\
#include "UxXt.h"\
#endif /* DESIGN_TIME */\
\
XtAppContext	UxAppContext;\
Widget		UxTopLevel;\
Display		*UxDisplay;\
int		UxScreen;\
\
/*----------------------------------------------\
 * Insert application global declarations here\
 *---------------------------------------------*/\
swidget bullet;\
int STEP_TEXT_MOD;\
main(argc,argv)\
	int 	argc;\
	char 	*argv[];\
{\
	/*-----------------------------------------------------------\
	 * Declarations.\
         * The default identifier - mainIface will only be declared \
	 * if the interface function is global and of type swidget.\
	 * To change the identifier to a different name, modify the\
	 * string mainIface in the file "xtmain.dat". If "mainIface"\
         * is declared, it will be used below where the return value\
	 * of  PJ_INTERFACE_FUNCTION_CALL will be assigned to it.\
         *----------------------------------------------------------*/ \
\
  	$PJ_INTERFACE_RETVAL_TYPE\
\
	/*---------------------------------\
	 * Interface function declaration\
	 *--------------------------------*/	\
         extern swidget create_bullet1();\
         extern swidget create_topLevelShell2();\
\
 	$PJ_INTERFACE_FUNCTION_DECL\
	$PJ_INTERFACE_FUNCTION_ARG_DECL\
         \
               \
	/*---------------------\
	 * Initialize program\
	 *--------------------*/\
\
#ifdef XOPEN_CATALOG\
	setlocale(LC_ALL, "");\
#endif\
\
  	UxTopLevel = XtAppInitialize(&UxAppContext, "$PJ_APP_CLASS_NAME",\
				     NULL, 0, &argc, argv, NULL, NULL, 0);\
\
	UxDisplay = XtDisplay(UxTopLevel);\
	UxScreen = XDefaultScreen(UxDisplay);\
\
	/* We set the geometry of UxTopLevel so that dialogShells\
	   that are parented on it will get centered on the screen\
	   (if defaultPosition is true). */\
\
	XtVaSetValues(UxTopLevel,\
			XtNx, 0,\
			XtNy, 0,\
			XtNwidth, DisplayWidth(UxDisplay, UxScreen),\
			XtNheight, DisplayHeight(UxDisplay, UxScreen),\
			NULL);\
\
	/*-------------------------------------------------------\
	 * Insert initialization code for your application here \
	 *------------------------------------------------------*/\
\
        init_alice();\
\
        /*----------------------------------------------------------------\
	 * Create and popup the first window of the interface.  The 	 \
	 * return value can be used in the popdown or destroy functions.\
         * The Widget return value of  PJ_INTERFACE_FUNCTION_CALL will \
         * be assigned to "mainIface" from  PJ_INTERFACE_RETVAL_TYPE. \
	 *---------------------------------------------------------------*/\
\
	$PJ_INTERFACE_FUNCTION_CALL\
	$PJ_POPUP_CALL\
\
	/*-----------------------\
	 * Enter the event loop \
	 *----------------------*/\
\
  	$PJ_EVENT_LOOP\
\
}\

*xtmain.PjExplicitEventLoop: {\
\
	XEvent event;\
\
	for (;;)\
	{\
	    XtAppNextEvent(UxAppContext, &event);\
\
	    switch (event.type)\
	    {\
\
	       /*---------------------------------------------------\
	 	* Insert code here to handle any events that you do\
		* not wish to be handled by the interface.\
		*---------------------------------------------------*/\
\
		default:\
	    	    XtDispatchEvent(&event);\
	    	    break;\
	    }\
	}\
}
*xtmain.PjEdited: 1
*xtmain.PjHasImplicitLoop: 1
*xtmain.PjHasExplicitLoop: 0

*uxmake.class: PJuxmake
*uxmake.PjName: uxmake
*uxmake.PjParent: alice
*uxmake.PjFileName: makefile
*uxmake.PjDate: 746896630
*uxmake.PjMode: 0
*uxmake.PjBody: ########################################################################\
# \
#    	MAKEFILE FOR STAND-ALONE UX CODE APPLICATION.\
#\
#       EXECUTABLE      is the name of the executable to be created \
#       MAIN            is the .c file containing your main() function\
#       INTERFACES      is a list of the generated C code files \
#       APP_OBJS        is a (possibly empty) list of the object code\
#                       files that form the non-interface portion of\
#                       your application \
#\
#       In the first three statements, the variables on the right \
#	of the equal sign will be replaced with their corresponding \
#       values when the makefile is automatically generated. \
#\
#  	$Date: 2003-06-04 14:49:19 $ 		$Revision: 1.1.1.1 $\
#########################################################################\
\
\
include ../../../local/default.mk\
\
CMAIN		= $PJ_MAIN_SRC\
CINTERFACES	= $PJ_INTERFACES_SRC\
EXEC		= XAlice\
EXECUTABLE	= ../../exec/$(EXEC).exe\
\
MAIN		= $(CMAIN:.c=.o)\
INTERFACES      = $(CINTERFACES:.c=.o)\
\
APPL_OBJS	= aliceagl.o misc.o  \
UX_DIR		= ../../GraphLib/libsrc/uimx\
\
LINC		= ../../incl\
GINC		= ../incl\
\
UX_LIBPATH	= -L../../lib\
\
X_CFLAGS	=\
MOTIF_CFLAGS	=\
\
CFLAGS		= $(C_OPT) $(DEBUG) $(GUI_OPT) \\
		  -I$(LINC) -I$(INC) -I$(GINC) -I$(UX_DIR)/include \\
		  $(X_CFLAGS) $(MOTIF_CFLAGS) -DXOPEN_CATALOG \\
		  $(XMINC)    $(X11INC)\
\
XOPEN_LIBS	= \
\
# The following object files are provided to work around a motif bug.\
# They are not necessarily needed to compile your application.\
LIBPATH		= $(X11_LIBPATH) $(MOTIF_LIBPATH)\
XLIB		= $(LIBPATH) $(X_LIBS) $(XOPEN_LIBS)\
\
LLIB		= $(UX_LIBPATH) -lmgauss -luimx -lcom -L$(LIBDIR)  \\
                   -lagl3 -lidicl -lmidas -ltw\
\
LIBS		= $(LIBDIR)/libmidas.a\
\
OBJS = $(MAIN) $(INTERFACES) $(APPL_OBJS)  \
\
all: tmp_makefile $(EXECUTABLE) \
\
$(EXECUTABLE): $(OBJS) $(LIBS)\
	$(LDCC) $(OBJS) $(LLIB) $(XLIB) $(MLIB) -o $(EXECUTABLE)\
	$(STRIP) $(EXECUTABLE)\
	@echo "done"\
\
clean:\
	$(RM) $(OBJS)\
\
clean_exec:\
	$(RM) $(EXECUTABLE)\
\
\
tmp_makefile: makefile\
	sed -e 's/^MAIN.*//' \\
	    -e 's/^INTERFACES.*//' \\
	    -e 's/^CMAIN/MAIN/' \\
	    -e 's/^CINTERFACES/INTERFACES/' \\
	    -e 's/\([^^]\)\.c/\1\.o/g'  \\
	    -e 's/^all: tmp_makefile/all:/' makefile > tmp_makefile\
	rm -f makefile\
	mv tmp_makefile makefile\
\
\
\
\
\
\
\

*uxmake.PjEdited: 1

*xtmake.class: PJxtmake
*xtmake.PjName: xtmake
*xtmake.PjParent: alice
*xtmake.PjFileName: alice.mk
*xtmake.PjDate: 716824487
*xtmake.PjMode: 1
*xtmake.PjBody: #########################################################################\
#\
#       MAKEFILE FOR STAND-ALONE XT CODE APPLICATION.  \
#\
#       EXECUTABLE      is the name of the executable to be created \
#       MAIN            is the .c file containing your main() function \
#       INTERFACES      is a list of the generated C code files\
#       APP_OBJS        is a (possibly empty) list of the object code\
#                       files that form the non-interface portion of\
#                       your application\
#\
#       In the first three statements, the variables on the right \
#	of the equal sign will be replaced with their corresponding\
#       values when the makefile is automatically generated.\
#\
#       This template is used for makefiles which do not reference \
#       the Ux runtime library.\
#\
#  	$Date: 2003-06-04 14:49:19 $ 		$Revision: 1.1.1.1 $\
#########################################################################\
\
EXECUTABLE	= $PJ_EXECUTABLE\
MAIN		= $PJ_MAIN_SRC\
INTERFACES	= $PJ_INTERFACES_SRC\
APPL_OBJS	= UxXt.o aliceagl.o\
UX_DIR		= /usr/architect2.0\
UX_LIBPATH	= $(UX_DIR)/lib\
X_LIBS		= -lXm -lXt -lX11\
\
X_LIBPATH       = -L/usr/lib/X11R4\
MOTIF_LIBPATH   = -L/usr/lib/Motif1.1\
X_CFLAGS        = -I/usr/include/X11R4\
MOTIF_CFLAGS    = -I/usr/include/Motif1.1\
\
# flags for HP-MC680*00 machines (series 300, 400)\
S300_FLAGS      = -Wc,-Ns10000,-Np300,-Nw500 -Wp,-H400000\
\
# flags for HP-PA machines (series 600, 700, 800)\
S800_FLAGS      = -Wp,-H400000 -z\
\
\
\
# uncomment the following line for ANSI-C code generation\
#PROTOTYPES	= -Aa -D_HPUX_SOURCE\
# uncomment the following line for K&R C code generation\
PROTOTYPES	= -D_NO_PROTO\
CFLAGS		= -DSYSV $(PROTOTYPES) -DXOPEN_CATALOG \\
		  $(X_CFLAGS) $(MOTIF_CFLAGS) \\
		  $(S800_FLAGS)\
LIBPATH         = $(X_LIBPATH) $(MOTIF_LIBPATH)\
LIBS		= $(X_LIBS) -lPW -lm\
\
\
OBJS = $(MAIN:.c=.o) $(INTERFACES:.c=.o) $(APPL_OBJS)\
\
\
\
\
\
$(EXECUTABLE): $(OBJS)\
	$(CC) $(OBJS) $(LIBPATH) $(LIBS) -o $(EXECUTABLE)\
	@echo "done"\

*xtmake.PjEdited: 1
