! UIMX ascii 2.0 key: 382                                                       

*XLong.class: Project
*XLong.PjName: XLong
*XLong.PjDoMain: 0
*XLong.PjDoMake: 0
*XLong.PjWriteAll: 0
*XLong.PjRunMake: 1
*XLong.PjWriteCDir: /diskb/midas/test/gui/XLong/src
*XLong.PjMode: 0

*ApplicWindow_PJinterface.class: PJinterface
*ApplicWindow_PJinterface.PjName: ApplicWindow_PJinterface
*ApplicWindow_PJinterface.PjSwName: ApplicWindow
*ApplicWindow_PJinterface.PjParent: XLong
*ApplicWindow_PJinterface.PjFileName: ApplicWindow.i
*ApplicWindow_PJinterface.PjShowFlag: 2
*ApplicWindow_PJinterface.PjDate: 805643279
*ApplicWindow_PJinterface.PjMode: 0
*ApplicWindow_PJinterface.PjCFileName: MainShell.c

*SearchShell_PJinterface.class: PJinterface
*SearchShell_PJinterface.PjName: SearchShell_PJinterface
*SearchShell_PJinterface.PjSwName: SearchShell
*SearchShell_PJinterface.PjParent: XLong
*SearchShell_PJinterface.PjFileName: SearchShell.i
*SearchShell_PJinterface.PjShowFlag: 2
*SearchShell_PJinterface.PjDate: 805639687
*SearchShell_PJinterface.PjMode: 0
*SearchShell_PJinterface.PjCFileName: SearchShell.c

*CalibShell_PJinterface.class: PJinterface
*CalibShell_PJinterface.PjName: CalibShell_PJinterface
*CalibShell_PJinterface.PjSwName: CalibShell
*CalibShell_PJinterface.PjParent: XLong
*CalibShell_PJinterface.PjFileName: CalibShell.i
*CalibShell_PJinterface.PjShowFlag: 0
*CalibShell_PJinterface.PjDate: 805643070
*CalibShell_PJinterface.PjMode: 0
*CalibShell_PJinterface.PjCFileName: CalibShell.c

*file_list_PJinterface.class: PJinterface
*file_list_PJinterface.PjName: file_list_PJinterface
*file_list_PJinterface.PjSwName: file_list
*file_list_PJinterface.PjParent: XLong
*file_list_PJinterface.PjFileName: file_list.i
*file_list_PJinterface.PjShowFlag: 2
*file_list_PJinterface.PjDate: 744643928
*file_list_PJinterface.PjMode: 0
*file_list_PJinterface.PjCFileName: file_list.c

*file_selection_PJinterface.class: PJinterface
*file_selection_PJinterface.PjName: file_selection_PJinterface
*file_selection_PJinterface.PjSwName: file_selection
*file_selection_PJinterface.PjParent: XLong
*file_selection_PJinterface.PjFileName: file_selection.i
*file_selection_PJinterface.PjShowFlag: 0
*file_selection_PJinterface.PjDate: 744643930
*file_selection_PJinterface.PjMode: 0
*file_selection_PJinterface.PjCFileName: file_selection.c

*RebinShell_PJinterface.class: PJinterface
*RebinShell_PJinterface.PjName: RebinShell_PJinterface
*RebinShell_PJinterface.PjSwName: RebinShell
*RebinShell_PJinterface.PjParent: XLong
*RebinShell_PJinterface.PjFileName: RebinShell.i
*RebinShell_PJinterface.PjShowFlag: 0
*RebinShell_PJinterface.PjDate: 805639690
*RebinShell_PJinterface.PjMode: 0
*RebinShell_PJinterface.PjCFileName: RebinShell.c

*lincat_list_PJinterface.class: PJinterface
*lincat_list_PJinterface.PjName: lincat_list_PJinterface
*lincat_list_PJinterface.PjSwName: lincat_list
*lincat_list_PJinterface.PjParent: XLong
*lincat_list_PJinterface.PjFileName: lincat_list.i
*lincat_list_PJinterface.PjShowFlag: 2
*lincat_list_PJinterface.PjDate: 744643934
*lincat_list_PJinterface.PjMode: 0
*lincat_list_PJinterface.PjCFileName: lincat_list.c

*FluxShell_PJinterface.class: PJinterface
*FluxShell_PJinterface.PjName: FluxShell_PJinterface
*FluxShell_PJinterface.PjSwName: FluxShell
*FluxShell_PJinterface.PjParent: XLong
*FluxShell_PJinterface.PjFileName: FluxShell.i
*FluxShell_PJinterface.PjShowFlag: 2
*FluxShell_PJinterface.PjDate: 805643071
*FluxShell_PJinterface.PjMode: 0
*FluxShell_PJinterface.PjCFileName: FluxShell.c

*file_dialog_PJinterface.class: PJinterface
*file_dialog_PJinterface.PjName: file_dialog_PJinterface
*file_dialog_PJinterface.PjSwName: file_dialog
*file_dialog_PJinterface.PjParent: XLong
*file_dialog_PJinterface.PjFileName: file_dialog.i
*file_dialog_PJinterface.PjShowFlag: 0
*file_dialog_PJinterface.PjDate: 744643937
*file_dialog_PJinterface.PjMode: 0
*file_dialog_PJinterface.PjCFileName: SessionShell.c

*ExtractShell_PJinterface.class: PJinterface
*ExtractShell_PJinterface.PjName: ExtractShell_PJinterface
*ExtractShell_PJinterface.PjSwName: ExtractShell
*ExtractShell_PJinterface.PjParent: XLong
*ExtractShell_PJinterface.PjFileName: ExtractShell.i
*ExtractShell_PJinterface.PjShowFlag: 2
*ExtractShell_PJinterface.PjDate: 805643569
*ExtractShell_PJinterface.PjMode: 0
*ExtractShell_PJinterface.PjCFileName: ExtractShell.c

*extin_dialog_PJinterface.class: PJinterface
*extin_dialog_PJinterface.PjName: extin_dialog_PJinterface
*extin_dialog_PJinterface.PjSwName: extin_dialog
*extin_dialog_PJinterface.PjParent: XLong
*extin_dialog_PJinterface.PjFileName: extin_dialog.i
*extin_dialog_PJinterface.PjShowFlag: 2
*extin_dialog_PJinterface.PjDate: 744643940
*extin_dialog_PJinterface.PjMode: 0
*extin_dialog_PJinterface.PjCFileName: extin_dialog.c

*resid_dialog_PJinterface.class: PJinterface
*resid_dialog_PJinterface.PjName: resid_dialog_PJinterface
*resid_dialog_PJinterface.PjSwName: resid_dialog
*resid_dialog_PJinterface.PjParent: XLong
*resid_dialog_PJinterface.PjFileName: resid_dialog.i
*resid_dialog_PJinterface.PjShowFlag: 2
*resid_dialog_PJinterface.PjDate: 744643941
*resid_dialog_PJinterface.PjMode: 0
*resid_dialog_PJinterface.PjCFileName: resid_dialog.c

*HelpShell_PJinterface.class: PJinterface
*HelpShell_PJinterface.PjName: HelpShell_PJinterface
*HelpShell_PJinterface.PjSwName: HelpShell
*HelpShell_PJinterface.PjParent: XLong
*HelpShell_PJinterface.PjFileName: HelpShell.i
*HelpShell_PJinterface.PjShowFlag: 2
*HelpShell_PJinterface.PjDate: 744643943
*HelpShell_PJinterface.PjMode: 0
*HelpShell_PJinterface.PjCFileName: HelpShell.c

*uxmain.class: PJuxmain
*uxmain.PjName: uxmain
*uxmain.PjParent: XLong
*uxmain.PjFileName: XLong.c
*uxmain.PjDate: 744643943
*uxmain.PjMode: 0
*uxmain.PjBody: /*------------------------------------------------------------\
 * This is the project main program file for Ux generated  \
 * code. You may add application dependent source code\
 * at the appropriate places. \
 * 			     \
 * Do not modify the statements preceded by the dollar\
 * sign ($), these statements will be replaced with\
 * the appropriate source code when the main program is\
 * automatically generated. \
 *			\
 * $Date: 2003-06-04 14:49:24 $  		$Revision: 1.1.1.1 $ \
 *-----------------------------------------------------------*/\
\
#ifdef XOPEN_CATALOG\
#include <locale.h>\
#endif\
\
#include <UxLib.h>\
\
\
/*----------------------------------------------\
 * Insert application global declarations here\
 *---------------------------------------------*/\
#include <gl_defs.h>\
#include <spec_defs.h>\
#include <main_defs.h>\
#include <main_decl.h>\
\
#include <signal.h>\
#include <StdResources.h>\
\
/* variables for file list management */\
swidget FileListInterface, TextFieldSwidget;\
Widget FileListWidget;\
int FillTextField;\
char DirSpecs[MAXLINE];\
\
extern swidget create_file_selection();\
extern swidget create_file_list();\
extern swidget create_lincat_list();\
\
\
main(argc,argv)\
	int 	argc;\
	char 	*argv[];\
{\
	/*-----------------------------------------------------------\
	 * Declarations.\
	 * The default identifier - mainIface will only be declared  \
	 * if the interface function is global and of type swidget. \
	 * To change the identifier to a different name, modify the\
	 * string mainIface in the file "main.dat".  If "mainIface"\
	 * is declared, it will be used below where the return value \
	 * of  PJ_INTERFACE_FUNCTION_CALL will be assigned to it.\
         *-----------------------------------------------------------*/ \
\
        int narg, fsmode = 0;\
	int cntflag = 1, logflag = 2, dispflag = 1;\
\
  	$PJ_INTERFACE_RETVAL_TYPE\
\
	/*--------------------------------\
	 * Interface function declaration\
	 *-------------------------------*/	\
\
 	$PJ_INTERFACE_FUNCTION_DECL\
	$PJ_INTERFACE_FUNCTION_ARG_DECL\
\
	/*---------------------\
	 * Initialize Program\
	 *--------------------*/\
\
#ifdef XOPEN_CATALOG\
	setlocale(LC_ALL, "");\
#endif\
\
  	UxTopLevel = UxInitialize("$PJ_APP_CLASS_NAME", &argc, argv);\
\
	/*------------------------------------------------------\
	 * Insert initialization code for your application here\
	 *-----------------------------------------------------*/\
\
        SetResources(argc, argv);\
	SCSPRO("XLONG");\
        SCECNT("PUT", &cntflag, &logflag, &dispflag);  \
        MonitorPid = atoi(argv[1]);\
\
        for (narg = 1; narg < argc; narg++)\
           if ( (argv[narg][0] == '-') && strcmp(argv[narg], "-fs") == 0 ) \
               fsmode = 1; /* MOTIF File Sel. */\
\
        if (fsmode == 0)\
           FileListInterface = create_file_list();\
        else\
           FileListInterface = create_file_selection();\
\
        create_lincat_list();\
\
        /*----------------------------------------------------------------\
	 * Create and popup the first window of the interface.  The 	 \
	 * return value can be used in the popdown or destroy functions.\
	 * The swidget return value of  PJ_INTERFACE_FUNCTION_CALL will\
	 * be assigned to "mainIface" from  PJ_INTERFACE_RETVAL_TYPE. \
	 *---------------------------------------------------------------*/\
\
	$PJ_INTERFACE_FUNCTION_CALL\
	$PJ_POPUP_CALL\
\
	/*-------------------------\
	 * Enter the event loop \
	 *------------------------*/\
\
        signal(SIGINT, SIG_IGN);\
        signal(SIGQUIT, SIG_IGN);\
        InitLong();\
  \
  	$PJ_EVENT_LOOP\
\
}\

*uxmain.PjExplicitEventLoop: {\
\
	XEvent event;\
\
	for (;;)\
	{\
	    UxNextEvent(&event);\
\
	    switch (event.type)\
	    {\
\
	       /*----------------------------------------------------\
	  	* Insert code here to handle any events that you do\
	 	* not wish to be handled by the interface.\
	 	*----------------------------------------------------*/\
\
		default:\
	    	    UxDispatchEvent(&event);\
	    	    break;\
	    }\
	}\
}
*uxmain.PjEdited: 1
*uxmain.PjHasImplicitLoop: 1
*uxmain.PjHasExplicitLoop: 0

*xtmain.class: PJxtmain
*xtmain.PjName: xtmain
*xtmain.PjParent: XLong
*xtmain.PjFileName: XLong.c
*xtmain.PjDate: 0
*xtmain.PjMode: -1

*uxmake.class: PJuxmake
*uxmake.PjName: uxmake
*uxmake.PjParent: XLong
*uxmake.PjFileName: makefile
*uxmake.PjDate: 0
*uxmake.PjMode: 0
*uxmake.PjBody: ########################################################################\
# \
#    	MAKEFILE FOR STAND-ALONE UX CODE APPLICATION.\
#\
#       EXECUTABLE      is the name of the executable to be created \
#       MAIN            is the .c file containing your main() function\
#       INTERFACES      is a list of the generated C code files \
#       APP_OBJS        is a (possibly empty) list of the object code\
#                       files that form the non-interface portion of\
#                       your application \
#\
#       In the first three statements, the variables on the right \
#	of the equal sign will be replaced with their corresponding \
#       values when the makefile is automatically generated. \
#\
#  	$Date: 2003-06-04 14:49:24 $ 		$Revision: 1.1.1.1 $\
#########################################################################\
\
\
include ../../../local/default.mk\
\
\
CMAIN		= $PJ_MAIN_SRC\
CINTERFACES	= $PJ_INTERFACES_SRC\
EXEC		= $PJ_EXECUTABLE\
EXECUTABLE	= ../../exec/$(EXEC).exe\
\
MAIN		= $(CMAIN:.c=.o)\
INTERFACES	= $(CINTERFACES:.c=.o) \
\
APPL_OBJS	= midasutil.o alloc.o cb_list.o misc.o splib.o\
UX_DIR		= ../../GraphLib/libsrc/uimx\
\
LINC		= ../../incl\
\
UX_LIBPATH	= -L../../lib\
\
X_CFLAGS	=\
MOTIF_CFLAGS	=\
\
CFLAGS		= $(C_OPT) $(DEBUG) $(GUI_OPT) \\
		  -I$(LINC) -I$(INC) -I$(UX_DIR)/include \\
		  $(X_CFLAGS) $(MOTIF_CFLAGS) -DXOPEN_CATALOG \\
		  $(XMINC)    $(X11INC)\
\
XOPEN_LIBS	= \
\
# The following object files are provided to work around a motif bug.\
# They are not necessarily needed to compile your application.\
LIBPATH		= $(X11_LIBPATH) $(MOTIF_LIBPATH)\
XLIB		= $(LIBPATH) $(X_LIBS) $(XOPEN_LIBS)\
\
LLIB		= $(UX_LIBPATH) -luimx -lcom -L$(LIBDIR) -ltw -lmidas  \
LIBS		= $(LIBDIR)/libmidas.a\
\
OBJS = $(MAIN) $(INTERFACES) $(APPL_OBJS)  \
\
all: tmp_makefile $(EXECUTABLE) \
\
$(EXECUTABLE): $(OBJS) $(LIBS)\
	$(LDCC) $(OBJS) $(LLIB) $(XLIB) $(MLIB) -o $(EXECUTABLE)\
	$(STRIP) $(EXECUTABLE)\
	@echo "done"\
\
clean:\
	$(RM) $(OBJS)\
\
clean_exec:\
	$(RM) $(EXECUTABLE)\
\
\
tmp_makefile: makefile\
	sed -e 's/^MAIN.*//' \\
	    -e 's/^INTERFACES.*//' \\
	    -e 's/^CMAIN/MAIN/' \\
	    -e 's/^CINTERFACES/INTERFACES/' \\
	    -e 's/\([^^]\)\.c/\1\.o/g'  \\
	    -e 's/^all: tmp_makefile/all:/' makefile > tmp_makefile\
	rm -f makefile\
	mv tmp_makefile makefile\
\
\
\
\
\
\

*uxmake.PjEdited: 1

*xtmake.class: PJxtmake
*xtmake.PjName: xtmake
*xtmake.PjParent: XLong
*xtmake.PjFileName: XLong.mk
*xtmake.PjDate: 0
*xtmake.PjMode: -1
